[
	{
		"secret": null,
		"storage_size": null,
		"number_of_slots": null,
		"utc_year": 2020,
		"internal": true,
		"delegatable": null,
		"source": "KT1JdDRnmhSfSHdcfheX1DLpNpiL2rhLm3nv",
		"consumed_gas": 10207,
		"timestamp": 1585044579000,
		"pkh": null,
		"nonce": "0",
		"parameters_micheline": null,
		"utc_day": 24,
		"block_level": 292335,
		"branch": null,
		"utc_month": 3,
		"errors": null,
		"balance": null,
		"operation_group_hash": "ooRo4gjiYGKxHj5zNdha4HAVLP2F5Z78HyK6PJEzdygiqfBYiwB",
		"public_key": null,
		"paid_storage_size_diff": null,
		"amount": 1000000,
		"delegate": null,
		"parameters_entrypoints": null,
		"utc_time": "10:09:39",
		"proposal": null,
		"block_hash": "BMcyDuqtXJELms7HxeRvNTeNmsatNnkX5aXfmGsEmvA4KG7LScg",
		"spendable": null,
		"cycle": 142,
		"status": "applied",
		"operation_id": 3757771,
		"manager_pubkey": null,
		"slots": null,
		"storage_limit": null,
		"ballot_period": null,
		"storage": null,
		"counter": null,
		"script": null,
		"kind": "transaction",
		"originated_contracts": null,
		"gas_limit": null,
		"parameters": null,
		"destination": "tz1XSXBeWqdupm73qWAJkxJkxRzH16y77i1B",
		"ballot": null,
		"period": 142,
		"fee": null,
		"level": null
	},
	{
		"secret": null,
		"storage_size": null,
		"number_of_slots": null,
		"utc_year": 2020,
		"internal": false,
		"delegatable": null,
		"source": "tz1XG1GnRkqs46dL8qWcF9SzEWVCR6ZKXSYR",
		"consumed_gas": 10207,
		"timestamp": 1584617503000,
		"pkh": null,
		"nonce": null,
		"parameters_micheline": null,
		"utc_day": 19,
		"block_level": 278958,
		"branch": null,
		"utc_month": 3,
		"errors": null,
		"balance": null,
		"operation_group_hash": "onp32iZUh3ky2MtueskmDCZBJtVVrDH1YHahViDzEbPJWe747c3",
		"public_key": null,
		"paid_storage_size_diff": null,
		"amount": 10000000000,
		"delegate": null,
		"parameters_entrypoints": null,
		"utc_time": "11:31:43",
		"proposal": null,
		"block_hash": "BMXwRZHVhC9sU8snW4XNPJX2vv4nCEqx4Q1DrXdNxSusNPRwPaV",
		"spendable": null,
		"cycle": 136,
		"status": "applied",
		"operation_id": 3557522,
		"manager_pubkey": null,
		"slots": null,
		"storage_limit": 277,
		"ballot_period": null,
		"storage": null,
		"counter": 552979,
		"script": null,
		"kind": "transaction",
		"originated_contracts": null,
		"gas_limit": 10307,
		"parameters": null,
		"destination": "tz1XSXBeWqdupm73qWAJkxJkxRzH16y77i1B",
		"ballot": null,
		"period": 136,
		"fee": 1190,
		"level": null
	}
]