{
	"operation_group": {
		"protocol": "PsBabyM1eUXZseaJdmXFApDSBqj8YBfwELoxZHHW77EMcAbbwAS",
		"chainId": "NetXUdfLh6Gm88t",
		"hash": "opYdWBU69HYZmb7BjbVuhvNWVXoyLSoGCwVzFVknjwTpewvx3Yv",
		"branch": "BLskxaMFwkWqpnnkNEJdwpo1nnjyYNWS92PMPVExr9PQtHweb9K",
		"signature": "sigSA8FMvzSQ5bV8etx8dT6DPkPpGs2T3b7xgGB6XEhxi19NLDvgXybgMVkyTUr7fMLb38qeXS3CrMu8UEr6J19RWoXRq6nn",
		"blockId": "BLJwGz8MDcM7sHhfTJPzaZ6EXMMQ8ocxC6SQ35Rcg6RbMQJbsSn",
		"blockLevel": 338167
	},
	"operations": [
		{
			"cycle": 165,
			"operationId": 3851361,
			"operationGroupHash": "opYdWBU69HYZmb7BjbVuhvNWVXoyLSoGCwVzFVknjwTpewvx3Yv",
			"kind": "origination",
			"source": "tz1XSXBeWqdupm73qWAJkxJkxRzH16y77i1B",
			"fee": 7362,
			"counter": 201474,
			"gasLimit": 43312,
			"storageLimit": 1591,
			"balance": 0,
			"script": "parameter (or (or (lambda %do (option mutez) operation) (mutez %checkLimit)) (or (unit %default) (option %setLimit mutez)));\nstorage (pair (pair (option %last_transaction (pair (timestamp %0) (mutez %expenses))) (option %limit mutez)) (key_hash %owner));\ncode { { { DUP ; CAR ; DIP { CDR } } } ;\n       IF_LEFT { IF_LEFT { PUSH mutez 0 ;\n                           AMOUNT ;\n                           { { COMPARE ; EQ } ; IF {} { { UNIT ; FAILWITH } } } ;\n                           { DIP { DUP } ; SWAP } ;\n                           CDR %owner ;\n                           IMPLICIT_ACCOUNT ;\n                           ADDRESS ;\n                           SENDER ;\n                           { { COMPARE ; EQ } ; IF {} { { UNIT ; FAILWITH } } } ;\n                           { DIP { DUP } ; SWAP } ;\n                           { CAR ; CDR %limit } ;\n                           { IF_NONE { NONE mutez ;\n                                     EXEC ;\n                                     NIL operation ;\n                                     SWAP ;\n                                     CONS ;\n                                     PAIR }\n                                   { SOME ;\n                                     EXEC ;\n                                     SELF %checkLimit ;\n                                     PUSH mutez 0 ;\n                                     BALANCE ;\n                                     TRANSFER_TOKENS ;\n                                     NIL operation ;\n                                     SWAP ;\n                                     CONS ;\n                                     SWAP ;\n                                     CONS ;\n                                     PAIR : } } }\n                         { SELF ;\n                           ADDRESS ;\n                           SENDER ;\n                           { { COMPARE ; EQ } ; IF {} { { UNIT ; FAILWITH } } } ;\n                           BALANCE ;\n                           SWAP ;\n                           SUB ;\n                           { DIP { DUP } ; SWAP } ;\n                           { CAR ; CDR %limit } ;\n                           { IF_NONE { PUSH string \"\" ;\n                                     FAILWITH }\n                                   { SWAP ;\n                                     DUP ;\n                                     PUSH mutez 0 ;\n                                     { COMPARE ; EQ } ;\n                                     IF { DROP ;\n                                          DROP ;\n                                          NIL operation ;\n                                          PAIR }\n                                        { { DIP 2 { DUP } ; DIG 3 } ;\n                                          { CAR ; CAR %last_transaction } ;\n                                          { IF_NONE { DUP ;\n                                                    DIP 2 { DUP } ;\n                                                    DIP { { COMPARE ; GE } } ;\n                                                    SWAP ;\n                                                    IF { SUB ;\n                                                         NOW ;\n                                                         PAIR ;\n               SOME ;\n                                                         SWAP ;\n                                                         { DUP ; DIP { CAR @%% ; { CDR @%% ; SWAP ; PAIR % %@ } } ; CDR @%% ; SWAP ; PAIR %@ %@ } ;\n                                                         NIL operation ;\n                                                         PAIR }\n                                                       { PUSH string \"\" ;\n                                                         FAILWITH } }\n                                                  { DUP ;\n                                                    CAR ;\n                                                    NOW ;\n                                                    SUB ;\n                                                    PUSH int 86400 ;\n                                                    { COMPARE ; GT } ;\n                                                    IF { { { DUP ; CAR ; DIP { CDR } } } ;\n                                                         DIP { DIG 2 ; ADD ; DUP } ;\n                                                         SWAP ;\n                                                         DIG 3 ;\n                                                         { COMPARE ; GE } ;\n                                                         IF { PAIR ;\n                                                              SOME ;\n                                                              SWAP ;\n                                                              { DUP ; DIP { CAR @%% ; { CDR @%% ; SWAP ; PAIR % %@ } } ; CDR @%% ; SWAP ; PAIR %@ %@ } }\n                                                            { PUSH string \"\" ;\n                                                              FAILWITH } }\n                                                       { DROP ;\n                                                         SUB ;\n                                                         NOW ;\n                                                         PAIR ;\n                                                         SOME ;\n                                                         SWAP ;\n                                                         { DUP ; DIP { CAR @%% ; { CDR @%% ; SWAP ; PAIR % %@ } } ; CDR @%% ; SWAP ; PAIR %@ %@ } } ;\n                                                    NIL operation ;\n                                                    PAIR } } } } } } }\n               { IF_LEFT { DROP ;\n                           NIL operation ;\n                           PAIR }\n                         { PUSH mutez 0 ;\n                           AMOUNT ;\n                           { { COMPARE ; EQ } ; IF {} { { UNIT ; FAILWITH } } } ;\n                           { DIP { DUP } ; SWAP } ;\n                           CDR %owner ;\n                           IMPLICIT_ACCOUNT ;\n                           ADDRESS ;\n                           SENDER ;\n                           { { COMPARE ; EQ } ; IF {} { { UNIT ; FAILWITH } } } ;\n                           SWAP ;\n                           { DUP ; DIP { CAR @%% ; { CAR @%% ; PAIR %@ % } } ; CDR @%% ; SWAP ; PAIR %@ %@ } ;\n                           NIL operation ;\n                           PAIR } } }",
			"storage": "Pair (Pair None (Some 2000000)) \"tz1XSXBeWqdupm73qWAJkxJkxRzH16y77i1B\"",
			"status": "applied",
			"consumedGas": 43212,
			"storageSize": 1334,
			"paidStorageSizeDiff": 1334,
			"originatedContracts": "KT1F2DowtrTnvLTWFSz7iJwYgqyfJvfLnowg",
			"blockHash": "BLJwGz8MDcM7sHhfTJPzaZ6EXMMQ8ocxC6SQ35Rcg6RbMQJbsSn",
			"blockLevel": 338167,
			"internal": false,
			"timestamp": 1583341678000
		}
	]
}
