[
  {
    "kind": "temporary",
    "id": "failure",
    "msg": "Error while applying operation onn7(…):\nbranch refused (Error:\n Counter 12344 already used for contract tz1(…)(expected 12345)\n)"
  }
]
