{
  "proof_of_work_nonce_size": 8,
  "nonce_length": 32,
  "max_anon_ops_per_block": 132,
  "max_operation_data_length": 16384,
  "max_proposals_per_delegate": 20,
  "preserved_cycles": 5,
  "blocks_per_cycle": 4096,
  "blocks_per_commitment": 32,
  "blocks_per_roll_snapshot": 256,
  "blocks_per_voting_period": 20480,
  "time_between_blocks": [
    "60",
    "40"
  ],
  "endorsers_per_block": 32,
  "hard_gas_limit_per_operation": "1040000",
  "hard_gas_limit_per_block": "10400000",
  "proof_of_work_threshold": "70368744177663",
  "tokens_per_roll": "8000000000",
  "michelson_maximum_type_size": 1000,
  "seed_nonce_revelation_tip": "125000",
  "origination_size": 257,
  "block_security_deposit": "512000000",
  "endorsement_security_deposit": "64000000",
  "baking_reward_per_endorsement": [
    "1250000",
    "187500"
  ],
  "endorsement_reward": [
    "1250000",
    "833333"
  ],
  "cost_per_byte": "250",
  "hard_storage_limit_per_operation": "60000",
  "test_chain_duration": "1228800",
  "quorum_min": 2000,
  "quorum_max": 7000,
  "min_proposal_quorum": 500,
  "initial_endorsers": 24,
  "delay_per_missing_endorsement": "8"
}
