[
	{
		"branch": "BLsgNdAX3bczGmpmCQ6WHEeTPYMN5bJioJJ4JT3hgJ9LFUhTaf7",
		"contents": [
			{
				"kind": "transaction",
				"source": "tz1XSXBeWqdupm73qWAJkxJkxRzH16y77i1B",
				"fee": "1284",
				"counter": "553086",
				"gas_limit": "10307",
				"storage_limit": "257",
				"amount": "100000",
				"destination": "tz1eZAGXmXxwkXUBUxuSk5XkJ5UZ5Q25Baja"
			}
		],
		"signature": "edsigtXomBKi5CTRf5cjATJWSyaRvhfYNHqSUGrn4SdbYRcGwQrUGjzEfQDTuqHhuA8b2d8NarZjz8TRf65WkpQmo423BtomS8Q"
	}
]