[
	{
		"contents": [
			{
				"kind": "origination",
				"source": "tz1dpVJ3ikMVzNEsMn2oo2mfo6cjg5U2nZHq",
				"fee": "7358",
				"counter": "550345",
				"gas_limit": "43297",
				"storage_limit": "1590",
				"balance": "0",
				"script": {
					"code": [
						{
							"prim": "parameter",
							"args": [
								{
									"prim": "or",
									"args": [
										{
											"prim": "or",
											"args": [
												{
													"prim": "lambda",
													"args": [
														{
															"prim": "option",
															"args": [
																{
																	"prim": "mutez"
																}
															]
														},
														{
															"prim": "operation"
														}
													],
													"annots": [
														"%do"
													]
												},
												{
													"prim": "mutez",
													"annots": [
														"%checkLimit"
													]
												}
											]
										},
										{
											"prim": "or",
											"args": [
												{
													"prim": "unit",
													"annots": [
														"%default"
													]
												},
												{
													"prim": "option",
													"args": [
														{
															"prim": "mutez"
														}
													],
													"annots": [
														"%setLimit"
													]
												}
											]
										}
									]
								}
							]
						},
						{
							"prim": "storage",
							"args": [
								{
									"prim": "pair",
									"args": [
										{
											"prim": "pair",
											"args": [
												{
													"prim": "option",
													"args": [
														{
															"prim": "pair",
															"args": [
																{
																	"prim": "timestamp",
																	"annots": [
																		"%0"
																	]
																},
																{
																	"prim": "mutez",
																	"annots": [
																		"%expenses"
																	]
																}
															]
														}
													],
													"annots": [
														"%last_transaction"
													]
												},
												{
													"prim": "option",
													"args": [
														{
															"prim": "mutez"
														}
													],
													"annots": [
														"%limit"
													]
												}
											]
										},
										{
											"prim": "key_hash",
											"annots": [
												"%owner"
											]
										}
									]
								}
							]
						},
						{
							"prim": "code",
							"args": [
								[
									[
										[
											{
												"prim": "DUP"
											},
											{
												"prim": "CAR"
											},
											{
												"prim": "DIP",
												"args": [
													[
														{
															"prim": "CDR"
														}
													]
												]
											}
										]
									],
									{
										"prim": "IF_LEFT",
										"args": [
											[
												{
													"prim": "IF_LEFT",
													"args": [
														[
															{
																"prim": "PUSH",
																"args": [
																	{
																		"prim": "mutez"
																	},
																	{
																		"int": "0"
																	}
																]
															},
															{
																"prim": "AMOUNT"
															},
															[
																[
																	{
																		"prim": "COMPARE"
																	},
																	{
																		"prim": "EQ"
																	}
																],
																{
																	"prim": "IF",
																	"args": [
																		[

																		],
																		[
																			[
																				{
																					"prim": "UNIT"
																				},
																				{
																					"prim": "FAILWITH"
																				}
																			]
																		]
																	]
																}
															],
															[
																{
																	"prim": "DIP",
																	"args": [
																		[
																			{
																				"prim": "DUP"
																			}
																		]
																	]
																},
																{
																	"prim": "SWAP"
																}
															],
															{
																"prim": "CDR",
																"annots": [
																	"%owner"
																]
															},
															{
																"prim": "IMPLICIT_ACCOUNT"
															},
															{
																"prim": "ADDRESS"
															},
															{
																"prim": "SENDER"
															},
															[
																[
																	{
																		"prim": "COMPARE"
																	},
																	{
																		"prim": "EQ"
																	}
																],
																{
																	"prim": "IF",
																	"args": [
																		[

																		],
																		[
																			[
																				{
																					"prim": "UNIT"
																				},
																				{
																					"prim": "FAILWITH"
																				}
																			]
																		]
																	]
																}
															],
															[
																{
																	"prim": "DIP",
																	"args": [
																		[
																			{
																				"prim": "DUP"
																			}
																		]
																	]
																},
																{
																	"prim": "SWAP"
																}
															],
															[
																{
																	"prim": "CAR"
																},
																{
																	"prim": "CDR",
																	"annots": [
																		"%limit"
																	]
																}
															],
															[
																{
																	"prim": "IF_NONE",
																	"args": [
																		[
																			{
																				"prim": "NONE",
																				"args": [
																					{
																						"prim": "mutez"
																					}
																				]
																			},
																			{
																				"prim": "EXEC"
																			},
																			{
																				"prim": "NIL",
																				"args": [
																					{
																						"prim": "operation"
																					}
																				]
																			},
																			{
																				"prim": "SWAP"
																			},
																			{
																				"prim": "CONS"
																			},
																			{
																				"prim": "PAIR"
																			}
																		],
																		[
																			{
																				"prim": "SOME"
																			},
																			{
																				"prim": "EXEC"
																			},
																			{
																				"prim": "SELF",
																				"annots": [
																					"%checkLimit"
																				]
																			},
																			{
																				"prim": "PUSH",
																				"args": [
																					{
																						"prim": "mutez"
																					},
																					{
																						"int": "0"
																					}
																				]
																			},
																			{
																				"prim": "BALANCE"
																			},
																			{
																				"prim": "TRANSFER_TOKENS"
																			},
																			{
																				"prim": "NIL",
																				"args": [
																					{
																						"prim": "operation"
																					}
																				]
																			},
																			{
																				"prim": "SWAP"
																			},
																			{
																				"prim": "CONS"
																			},
																			{
																				"prim": "SWAP"
																			},
																			{
																				"prim": "CONS"
																			},
																			{
																				"prim": "PAIR",
																				"annots": [
																					":"
																				]
																			}
																		]
																	]
																}
															]
														],
														[
															{
																"prim": "SELF"
															},
															{
																"prim": "ADDRESS"
															},
															{
																"prim": "SENDER"
															},
															[
																[
																	{
																		"prim": "COMPARE"
																	},
																	{
																		"prim": "EQ"
																	}
																],
																{
																	"prim": "IF",
																	"args": [
																		[

																		],
																		[
																			[
																				{
																					"prim": "UNIT"
																				},
																				{
																					"prim": "FAILWITH"
																				}
																			]
																		]
																	]
																}
															],
															{
																"prim": "BALANCE"
															},
															{
																"prim": "SWAP"
															},
															{
																"prim": "SUB"
															},
															[
																{
																	"prim": "DIP",
																	"args": [
																		[
																			{
																				"prim": "DUP"
																			}
																		]
																	]
																},
																{
																	"prim": "SWAP"
																}
															],
															[
																{
																	"prim": "CAR"
																},
																{
																	"prim": "CDR",
																	"annots": [
																		"%limit"
																	]
																}
															],
															[
																{
																	"prim": "IF_NONE",
																	"args": [
																		[
																			{
																				"prim": "PUSH",
																				"args": [
																					{
																						"prim": "string"
																					},
																					{
																						"string": ""
																					}
																				]
																			},
																			{
																				"prim": "FAILWITH"
																			}
																		],
																		[
																			{
																				"prim": "SWAP"
																			},
																			{
																				"prim": "DUP"
																			},
																			{
																				"prim": "PUSH",
																				"args": [
																					{
																						"prim": "mutez"
																					},
																					{
																						"int": "0"
																					}
																				]
																			},
																			[
																				{
																					"prim": "COMPARE"
																				},
																				{
																					"prim": "EQ"
																				}
																			],
																			{
																				"prim": "IF",
																				"args": [
																					[
																						{
																							"prim": "DROP"
																						},
																						{
																							"prim": "DROP"
																						},
																						{
																							"prim": "NIL",
																							"args": [
																								{
																									"prim": "operation"
																								}
																							]
																						},
																						{
																							"prim": "PAIR"
																						}
																					],
																					[
																						[
																							{
																								"prim": "DIP",
																								"args": [
																									{
																										"int": "2"
																									},
																									[
																										{
																											"prim": "DUP"
																										}
																									]
																								]
																							},
																							{
																								"prim": "DIG",
																								"args": [
																									{
																										"int": "3"
																									}
																								]
																							}
																						],
																						[
																							{
																								"prim": "CAR"
																							},
																							{
																								"prim": "CAR",
																								"annots": [
																									"%last_transaction"
																								]
																							}
																						],
																						[
																							{
																								"prim": "IF_NONE",
																								"args": [
																									[
																										{
																											"prim": "DUP"
																										},
																										{
																											"prim": "DIP",
																											"args": [
																												{
																													"int": "2"
																												},
																												[
																													{
																														"prim": "DUP"
																													}
																												]
																											]
																										},
																										{
																											"prim": "DIP",
																											"args": [
																												[
																													[
																														{
																															"prim": "COMPARE"
																														},
																														{
																															"prim": "GE"
																														}
																													]
																												]
																											]
																										},
																										{
																											"prim": "SWAP"
																										},
																										{
																											"prim": "IF",
																											"args": [
																												[
																													{
																														"prim": "SUB"
																													},
																													{
																														"prim": "NOW"
																													},
																													{
																														"prim": "PAIR"
																													},
																													{
																														"prim": "SOME"
																													},
																													{
																														"prim": "SWAP"
																													},
																													[
																														{
																															"prim": "DUP"
																														},
																														{
																															"prim": "DIP",
																															"args": [
																																[
																																	{
																																		"prim": "CAR",
																																		"annots": [
																																			"@%%"
																																		]
																																	},
																																	[
																																		{
																																			"prim": "CDR",
																																			"annots": [
																																				"@%%"
																																			]
																																		},
																																		{
																																			"prim": "SWAP"
																																		},
																																		{
																																			"prim": "PAIR",
																																			"annots": [
																																				"%",
																																				"%@"
																																			]
																																		}
																																	]
																																]
																															]
																														},
																														{
																															"prim": "CDR",
																															"annots": [
																																"@%%"
																															]
																														},
																														{
																															"prim": "SWAP"
																														},
																														{
																															"prim": "PAIR",
																															"annots": [
																																"%@",
																																"%@"
																															]
																														}
																													],
																													{
																														"prim": "NIL",
																														"args": [
																															{
																																"prim": "operation"
																															}
																														]
																													},
																													{
																														"prim": "PAIR"
																													}
																												],
																												[
																													{
																														"prim": "PUSH",
																														"args": [
																															{
																																"prim": "string"
																															},
																															{
																																"string": ""
																															}
																														]
																													},
																													{
																														"prim": "FAILWITH"
																													}
																												]
																											]
																										}
																									],
																									[
																										{
																											"prim": "DUP"
																										},
																										{
																											"prim": "CAR"
																										},
																										{
																											"prim": "NOW"
																										},
																										{
																											"prim": "SUB"
																										},
																										{
																											"prim": "PUSH",
																											"args": [
																												{
																													"prim": "int"
																												},
																												{
																													"int": "86400"
																												}
																											]
																										},
																										[
																											{
																												"prim": "COMPARE"
																											},
																											{
																												"prim": "GT"
																											}
																										],
																										{
																											"prim": "IF",
																											"args": [
																												[
																													[
																														[
																															{
																																"prim": "DUP"
																															},
																															{
																																"prim": "CAR"
																															},
																															{
																																"prim": "DIP",
																																"args": [
																																	[
																																		{
																																			"prim": "CDR"
																																		}
																																	]
																																]
																															}
																														]
																													],
																													{
																														"prim": "DIP",
																														"args": [
																															[
																																{
																																	"prim": "DIG",
																																	"args": [
																																		{
																																			"int": "2"
																																		}
																																	]
																																},
																																{
																																	"prim": "ADD"
																																},
																																{
																																	"prim": "DUP"
																																}
																															]
																														]
																													},
																													{
																														"prim": "SWAP"
																													},
																													{
																														"prim": "DIG",
																														"args": [
																															{
																																"int": "3"
																															}
																														]
																													},
																													[
																														{
																															"prim": "COMPARE"
																														},
																														{
																															"prim": "GE"
																														}
																													],
																													{
																														"prim": "IF",
																														"args": [
																															[
																																{
																																	"prim": "PAIR"
																																},
																																{
																																	"prim": "SOME"
																																},
																																{
																																	"prim": "SWAP"
																																},
																																[
																																	{
																																		"prim": "DUP"
																																	},
																																	{
																																		"prim": "DIP",
																																		"args": [
																																			[
																																				{
																																					"prim": "CAR",
																																					"annots": [
																																						"@%%"
																																					]
																																				},
																																				[
																																					{
																																						"prim": "CDR",
																																						"annots": [
																																							"@%%"
																																						]
																																					},
																																					{
																																						"prim": "SWAP"
																																					},
																																					{
																																						"prim": "PAIR",
																																						"annots": [
																																							"%",
																																							"%@"
																																						]
																																					}
																																				]
																																			]
																																		]
																																	},
																																	{
																																		"prim": "CDR",
																																		"annots": [
																																			"@%%"
																																		]
																																	},
																																	{
																																		"prim": "SWAP"
																																	},
																																	{
																																		"prim": "PAIR",
																																		"annots": [
																																			"%@",
																																			"%@"
																																		]
																																	}
																																]
																															],
																															[
																																{
																																	"prim": "PUSH",
																																	"args": [
																																		{
																																			"prim": "string"
																																		},
																																		{
																																			"string": ""
																																		}
																																	]
																																},
																																{
																																	"prim": "FAILWITH"
																																}
																															]
																														]
																													}
																												],
																												[
																													{
																														"prim": "DROP"
																													},
																													{
																														"prim": "SUB"
																													},
																													{
																														"prim": "NOW"
																													},
																													{
																														"prim": "PAIR"
																													},
																													{
																														"prim": "SOME"
																													},
																													{
																														"prim": "SWAP"
																													},
																													[
																														{
																															"prim": "DUP"
																														},
																														{
																															"prim": "DIP",
																															"args": [
																																[
																																	{
																																		"prim": "CAR",
																																		"annots": [
																																			"@%%"
																																		]
																																	},
																																	[
																																		{
																																			"prim": "CDR",
																																			"annots": [
																																				"@%%"
																																			]
																																		},
																																		{
																																			"prim": "SWAP"
																																		},
																																		{
																																			"prim": "PAIR",
																																			"annots": [
																																				"%",
																																				"%@"
																																			]
																																		}
																																	]
																																]
																															]
																														},
																														{
																															"prim": "CDR",
																															"annots": [
																																"@%%"
																															]
																														},
																														{
																															"prim": "SWAP"
																														},
																														{
																															"prim": "PAIR",
																															"annots": [
																																"%@",
																																"%@"
																															]
																														}
																													]
																												]
																											]
																										},
																										{
																											"prim": "NIL",
																											"args": [
																												{
																													"prim": "operation"
																												}
																											]
																										},
																										{
																											"prim": "PAIR"
																										}
																									]
																								]
																							}
																						]
																					]
																				]
																			}
																		]
																	]
																}
															]
														]
													]
												}
											],
											[
												{
													"prim": "IF_LEFT",
													"args": [
														[
															{
																"prim": "DROP"
															},
															{
																"prim": "NIL",
																"args": [
																	{
																		"prim": "operation"
																	}
																]
															},
															{
																"prim": "PAIR"
															}
														],
														[
															{
																"prim": "PUSH",
																"args": [
																	{
																		"prim": "mutez"
																	},
																	{
																		"int": "0"
																	}
																]
															},
															{
																"prim": "AMOUNT"
															},
															[
																[
																	{
																		"prim": "COMPARE"
																	},
																	{
																		"prim": "EQ"
																	}
																],
																{
																	"prim": "IF",
																	"args": [
																		[

																		],
																		[
																			[
																				{
																					"prim": "UNIT"
																				},
																				{
																					"prim": "FAILWITH"
																				}
																			]
																		]
																	]
																}
															],
															[
																{
																	"prim": "DIP",
																	"args": [
																		[
																			{
																				"prim": "DUP"
																			}
																		]
																	]
																},
																{
																	"prim": "SWAP"
																}
															],
															{
																"prim": "CDR",
																"annots": [
																	"%owner"
																]
															},
															{
																"prim": "IMPLICIT_ACCOUNT"
															},
															{
																"prim": "ADDRESS"
															},
															{
																"prim": "SENDER"
															},
															[
																[
																	{
																		"prim": "COMPARE"
																	},
																	{
																		"prim": "EQ"
																	}
																],
																{
																	"prim": "IF",
																	"args": [
																		[

																		],
																		[
																			[
																				{
																					"prim": "UNIT"
																				},
																				{
																					"prim": "FAILWITH"
																				}
																			]
																		]
																	]
																}
															],
															{
																"prim": "SWAP"
															},
															[
																{
																	"prim": "DUP"
																},
																{
																	"prim": "DIP",
																	"args": [
																		[
																			{
																				"prim": "CAR",
																				"annots": [
																					"@%%"
																				]
																			},
																			[
																				{
																					"prim": "CAR",
																					"annots": [
																						"@%%"
																					]
																				},
																				{
																					"prim": "PAIR",
																					"annots": [
																						"%@",
																						"%"
																					]
																				}
																			]
																		]
																	]
																},
																{
																	"prim": "CDR",
																	"annots": [
																		"@%%"
																	]
																},
																{
																	"prim": "SWAP"
																},
																{
																	"prim": "PAIR",
																	"annots": [
																		"%@",
																		"%@"
																	]
																}
															],
															{
																"prim": "NIL",
																"args": [
																	{
																		"prim": "operation"
																	}
																]
															},
															{
																"prim": "PAIR"
															}
														]
													]
												}
											]
										]
									}
								]
							]
						}
					],
					"storage": {
						"prim": "Pair",
						"args": [
							{
								"prim": "Pair",
								"args": [
									{
										"prim": "None"
									},
									{
										"prim": "Some",
										"args": [
											{
												"int": "1000000"
											}
										]
									}
								]
							},
							{
								"string": "tz1dpVJ3ikMVzNEsMn2oo2mfo6cjg5U2nZHq"
							}
						]
					}
				},
				"metadata": {
					"balance_updates": [
						{
							"kind": "contract",
							"contract": "tz1dpVJ3ikMVzNEsMn2oo2mfo6cjg5U2nZHq",
							"change": "-7358"
						},
						{
							"kind": "freezer",
							"category": "fees",
							"delegate": "tz1Ke2h7sDdakHJQh8WX4Z372du1KChsksyU",
							"cycle": 164,
							"change": "7358"
						}
					],
					"operation_result": {
						"status": "applied",
						"big_map_diff": [

						],
						"balance_updates": [
							{
								"kind": "contract",
								"contract": "tz1dpVJ3ikMVzNEsMn2oo2mfo6cjg5U2nZHq",
								"change": "-1333000"
							},
							{
								"kind": "contract",
								"contract": "tz1dpVJ3ikMVzNEsMn2oo2mfo6cjg5U2nZHq",
								"change": "-257000"
							}
						],
						"originated_contracts": [
							"KT1LHj4gvphdrhmvtWbAxqCJ2u7GvsKt87b9"
						],
						"consumed_gas": "43197",
						"storage_size": "1333",
						"paid_storage_size_diff": "1333"
					}
				}
			}
		],
		"signature": "edsig"
	}
]
