{
	"contents": [
		{
			"kind": "transaction",
			"source": "tz1XSXBeWqdupm73qWAJkxJkxRzH16y77i1B",
			"fee": "0",
			"counter": "201524",
			"gas_limit": "800000",
			"storage_limit": "60000",
			"amount": "0",
			"destination": "KT1F2DowtrTnvLTWFSz7iJwYgqyfJvfLnowg",
			"parameters": {
				"entrypoint": "do",
				"value": [
					{
						"prim": "DROP"
					},
					{
						"prim": "SOURCE"
					},
					{
						"prim": "CONTRACT",
						"args": [
							{
								"prim": "unit"
							}
						]
					},
					[
						{
							"prim": "IF_NONE",
							"args": [
								[
									{
										"prim": "PUSH",
										"args": [
											{
												"prim": "string"
											},
											{
												"string": ""
											}
										]
									},
									{
										"prim": "FAILWITH"
									}
								],
								[
									{
										"prim": "PUSH",
										"args": [
											{
												"prim": "mutez"
											},
											{
												"int": "1000000"
											}
										]
									},
									{
										"prim": "UNIT"
									},
									{
										"prim": "TRANSFER_TOKENS"
									}
								]
							]
						}
					]
				]
			},
			"metadata": {
				"balance_updates": [

				],
				"operation_result": {
					"status": "applied",
					"storage": {
						"prim": "Pair",
						"args": [
							{
								"prim": "Pair",
								"args": [
									{
										"prim": "Some",
										"args": [
											{
												"prim": "Pair",
												"args": [
													{
														"int": "1583768536"
													},
													{
														"int": "100000000"
													}
												]
											}
										]
									},
									{
										"prim": "None"
									}
								]
							},
							{
								"bytes": "0081744d3ad071c4fd31913c5e80da1c6c9fb9f4b3"
							}
						]
					},
					"consumed_gas": "48762",
					"storage_size": "1342"
				},
				"internal_operation_results": [
					{
						"kind": "transaction",
						"source": "KT1F2DowtrTnvLTWFSz7iJwYgqyfJvfLnowg",
						"nonce": 0,
						"amount": "1000000",
						"destination": "tz1XSXBeWqdupm73qWAJkxJkxRzH16y77i1B",
						"result": {
							"status": "applied",
							"balance_updates": [
								{
									"kind": "contract",
									"contract": "KT1F2DowtrTnvLTWFSz7iJwYgqyfJvfLnowg",
									"change": "-1000000"
								},
								{
									"kind": "contract",
									"contract": "tz1XSXBeWqdupm73qWAJkxJkxRzH16y77i1B",
									"change": "1000000"
								}
							],
							"consumed_gas": "10207"
						}
					}
				]
			}
		},
		{
			"kind": "transaction",
			"source": "tz1XSXBeWqdupm73qWAJkxJkxRzH16y77i1B",
			"fee": "0",
			"counter": "201525",
			"gas_limit": "800000",
			"storage_limit": "60000",
			"amount": "1000000",
			"destination": "KT1Var2egEQtc58fCVDpsNJdyzuWZ8yacvW4",
			"parameters": {
				"entrypoint": "xtzToToken",
				"value": {
					"prim": "Pair",
					"args": [
						{
							"prim": "Pair",
							"args": [
								{
									"string": "KT1F2DowtrTnvLTWFSz7iJwYgqyfJvfLnowg"
								},
								{
									"int": "40"
								}
							]
						},
						{
							"string": "2020-03-17T17:52:57Z"
						}
					]
				}
			},
			"metadata": {
				"balance_updates": [

				],
				"operation_result": {
					"status": "applied",
					"storage": {
						"prim": "Pair",
						"args": [
							{
								"int": "1963"
							},
							{
								"prim": "Pair",
								"args": [
									{
										"prim": "Pair",
										"args": [
											{
												"prim": "Pair",
												"args": [
													{
														"prim": "None"
													},
													{
														"prim": "Some",
														"args": [
															{
																"prim": "Pair",
																"args": [
																	{
																		"prim": "Pair",
																		"args": [
																			{
																				"bytes": "002cca28ab019ae2d8c26f4ce4924cad67a2dc6618"
																			},
																			{
																				"bytes": "0000b13cc0ccaf84b983e4d06e2fe3876adad57851ba"
																			}
																		]
																	},
																	{
																		"prim": "Pair",
																		"args": [
																			{
																				"int": "1000000"
																			},
																			{
																				"int": "50"
																			}
																		]
																	}
																]
															}
														]
													}
												]
											},
											{
												"prim": "Pair",
												"args": [
													{
														"int": "1580637600"
													},
													{
														"int": "4012366953"
													}
												]
											}
										]
									},
									{
										"prim": "Pair",
										"args": [
											{
												"bytes": "0161e3eaba03d2f18e99f460dd49abcc2870c8d7a900"
											},
											{
												"int": "180339"
											}
										]
									}
								]
							}
						]
					},
					"balance_updates": [
						{
							"kind": "contract",
							"contract": "tz1XSXBeWqdupm73qWAJkxJkxRzH16y77i1B",
							"change": "-1000000"
						},
						{
							"kind": "contract",
							"contract": "KT1Var2egEQtc58fCVDpsNJdyzuWZ8yacvW4",
							"change": "1000000"
						}
					],
					"consumed_gas": "435850",
					"storage_size": "15511"
				},
				"internal_operation_results": [
					{
						"kind": "transaction",
						"source": "KT1Var2egEQtc58fCVDpsNJdyzuWZ8yacvW4",
						"nonce": 1,
						"amount": "0",
						"destination": "KT1HWN9KL97fo7oYZgy36Je7ZYZAY6Xt4ye2",
						"parameters": {
							"entrypoint": "default",
							"value": {
								"prim": "Right",
								"args": [
									{
										"prim": "Pair",
										"args": [
											{
												"prim": "Pair",
												"args": [
													{
														"bytes": "01e65e5e0fea1c3267e665ded0fd840787c91e68a100"
													},
													{
														"bytes": "0146a10fc2baf0952c2901193531ebc3778992e4be00"
													}
												]
											},
											{
												"int": "40"
											}
										]
									}
								]
							}
						},
						"result": {
							"status": "applied",
							"storage": {
								"prim": "Pair",
								"args": [
									{
										"int": "1641"
									},
									{
										"int": "1000000"
									}
								]
							},
							"big_map_diff": [
								{
									"action": "update",
									"big_map": "1641",
									"key_hash": "exprtuY74xkd3mcFwxaWqMBVaqzdb7XR1DNjjhnecRBB85HKkVkaLS",
									"key": {
										"bytes": "0146a10fc2baf0952c2901193531ebc3778992e4be00"
									},
									"value": {
										"prim": "Pair",
										"args": [
											[

											],
											{
												"int": "3042"
											}
										]
									}
								},
								{
									"action": "update",
									"big_map": "1641",
									"key_hash": "exprv2oasSSNfqFQEWLJmG1hQ4SdaV33BLrCyqfKjs2R7bYVExo7fX",
									"key": {
										"bytes": "01e65e5e0fea1c3267e665ded0fd840787c91e68a100"
									},
									"value": {
										"prim": "Pair",
										"args": [
											[

											],
											{
												"int": "180389"
											}
										]
									}
								}
							],
							"consumed_gas": "106153",
							"storage_size": "6879"
						}
					}
				]
			}
		}
	]
}