{
  "contents": [{
    "kind": "transaction",
    "source": "tz1cWwpcWBo8LcZiyfPdYYe7xifu1zGL4agT",
    "fee": "0",
    "counter": "142336",
    "gas_limit": "800000",
    "storage_limit": "60000",
    "amount": "1",
    "destination": "tz1WRoqRuEZqeh2MXpxEeKmGk89Wv9Ad4GyC",
    "metadata": {
      "balance_updates": [],
      "operation_result": {
        "status": "applied",
        "balance_updates": [{
          "kind": "contract",
          "contract": "tz1cWwpcWBo8LcZiyfPdYYe7xifu1zGL4agT",
          "change": "-1"
        }, {
          "kind": "contract",
          "contract": "tz1WRoqRuEZqeh2MXpxEeKmGk89Wv9Ad4GyC",
          "change": "1"
        }],
        "consumed_gas": "10207"
      }
    }
  }]
}
