{
	"contents": [
		{
			"kind": "transaction",
			"source": "tz1gUbUnthNzEPqabcSGWnbBWckLbccgC8dN",
			"fee": "0",
			"counter": "789997",
			"gas_limit": "800000",
			"storage_limit": "60000",
			"amount": "0",
			"destination": "KT1Njyz94x2pNJGh5uMhKj24VB9JsGCdkySN",
			"parameters": {
				"entrypoint": "default",
				"value": [
					{
						"prim": "PUSH",
						"args": [
							{
								"prim": "mutez"
							},
							{
								"int": "0"
							}
						]
					},
					{
						"prim": "NONE",
						"args": [
							{
								"prim": "key_hash"
							}
						]
					},
					{
						"prim": "CREATE_CONTRACT",
						"args": [
							[
								{
									"prim": "parameter",
									"args": [
										{
											"prim": "nat"
										}
									]
								},
								{
									"prim": "storage",
									"args": [
										{
											"prim": "unit"
										}
									]
								},
								{
									"prim": "code",
									"args": [
										[
											{
												"prim": "FAILWITH"
											}
										]
									]
								}
							]
						]
					},
					{
						"prim": "DIP",
						"args": [
							[
								{
									"prim": "DIP",
									"args": [
										[
											{
												"prim": "LAMBDA",
												"args": [
													{
														"prim": "pair",
														"args": [
															{
																"prim": "address"
															},
															{
																"prim": "unit"
															}
														]
													},
													{
														"prim": "pair",
														"args": [
															{
																"prim": "list",
																"args": [
																	{
																		"prim": "operation"
																	}
																]
															},
															{
																"prim": "unit"
															}
														]
													},
													[
														{
															"prim": "CAR"
														},
														{
															"prim": "CONTRACT",
															"args": [
																{
																	"prim": "nat"
																}
															]
														},
														{
															"prim": "IF_NONE",
															"args": [
																[
																	{
																		"prim": "PUSH",
																		"args": [
																			{
																				"prim": "string"
																			},
																			{
																				"string": "a"
																			}
																		]
																	},
																	{
																		"prim": "FAILWITH"
																	}
																],
																[

																]
															]
														},
														{
															"prim": "PUSH",
															"args": [
																{
																	"prim": "address"
																},
																{
																	"string": "tz1gUbUnthNzEPqabcSGWnbBWckLbccgC8dN"
																}
															]
														},
														{
															"prim": "PAIR"
														},
														{
															"prim": "DIP",
															"args": [
																[
																	{
																		"prim": "PUSH",
																		"args": [
																			{
																				"prim": "address"
																			},
																			{
																				"string": "KT1Njyz94x2pNJGh5uMhKj24VB9JsGCdkySN"
																			}
																		]
																	},
																	{
																		"prim": "CONTRACT",
																		"args": [
																			{
																				"prim": "pair",
																				"args": [
																					{
																						"prim": "address"
																					},
																					{
																						"prim": "contract",
																						"args": [
																							{
																								"prim": "nat"
																							}
																						]
																					}
																				]
																			}
																		],
																		"annots": [
																			"%getBalance"
																		]
																	},
																	{
																		"prim": "IF_NONE",
																		"args": [
																			[
																				{
																					"prim": "PUSH",
																					"args": [
																						{
																							"prim": "string"
																						},
																						{
																							"string": "b"
																						}
																					]
																				},
																				{
																					"prim": "FAILWITH"
																				}
																			],
																			[

																			]
																		]
																	},
																	{
																		"prim": "PUSH",
																		"args": [
																			{
																				"prim": "mutez"
																			},
																			{
																				"int": "0"
																			}
																		]
																	}
																]
															]
														},
														{
															"prim": "TRANSFER_TOKENS"
														},
														{
															"prim": "DIP",
															"args": [
																[
																	{
																		"prim": "NIL",
																		"args": [
																			{
																				"prim": "operation"
																			}
																		]
																	}
																]
															]
														},
														{
															"prim": "CONS"
														},
														{
															"prim": "DIP",
															"args": [
																[
																	{
																		"prim": "UNIT"
																	}
																]
															]
														},
														{
															"prim": "PAIR"
														}
													]
												]
											}
										]
									]
								},
								{
									"prim": "APPLY"
								},
								{
									"prim": "DIP",
									"args": [
										[
											{
												"prim": "PUSH",
												"args": [
													{
														"prim": "address"
													},
													{
														"string": "KT1Njyz94x2pNJGh5uMhKj24VB9JsGCdkySN"
													}
												]
											},
											{
												"prim": "CONTRACT",
												"args": [
													{
														"prim": "lambda",
														"args": [
															{
																"prim": "unit"
															},
															{
																"prim": "pair",
																"args": [
																	{
																		"prim": "list",
																		"args": [
																			{
																				"prim": "operation"
																			}
																		]
																	},
																	{
																		"prim": "unit"
																	}
																]
															}
														]
													}
												]
											},
											{
												"prim": "IF_NONE",
												"args": [
													[
														{
															"prim": "PUSH",
															"args": [
																{
																	"prim": "string"
																},
																{
																	"string": "c"
																}
															]
														},
														{
															"prim": "FAILWITH"
														}
													],
													[

													]
												]
											},
											{
												"prim": "PUSH",
												"args": [
													{
														"prim": "mutez"
													},
													{
														"int": "0"
													}
												]
											}
										]
									]
								},
								{
									"prim": "TRANSFER_TOKENS"
								},
								{
									"prim": "DIP",
									"args": [
										[
											{
												"prim": "NIL",
												"args": [
													{
														"prim": "operation"
													}
												]
											}
										]
									]
								},
								{
									"prim": "CONS"
								}
							]
						]
					},
					{
						"prim": "CONS"
					},
					{
						"prim": "DIP",
						"args": [
							[
								{
									"prim": "UNIT"
								}
							]
						]
					},
					{
						"prim": "PAIR"
					}
				]
			},
			"metadata": {
				"balance_updates": [

				],
				"operation_result": {
					"status": "backtracked",
					"storage": {
						"prim": "Unit"
					},
					"consumed_gas": "26984",
					"storage_size": "46"
				},
				"internal_operation_results": [
					{
						"kind": "origination",
						"source": "KT1Njyz94x2pNJGh5uMhKj24VB9JsGCdkySN",
						"nonce": 0,
						"balance": "0",
						"script": {
							"code": [
								{
									"prim": "parameter",
									"args": [
										{
											"prim": "nat"
										}
									]
								},
								{
									"prim": "storage",
									"args": [
										{
											"prim": "unit"
										}
									]
								},
								{
									"prim": "code",
									"args": [
										[
											{
												"prim": "FAILWITH"
											}
										]
									]
								}
							],
							"storage": {
								"prim": "Unit"
							}
						},
						"result": {
							"status": "backtracked",
							"big_map_diff": [

							],
							"balance_updates": [
								{
									"kind": "contract",
									"contract": "tz1gUbUnthNzEPqabcSGWnbBWckLbccgC8dN",
									"change": "-32000"
								},
								{
									"kind": "contract",
									"contract": "tz1gUbUnthNzEPqabcSGWnbBWckLbccgC8dN",
									"change": "-257000"
								}
							],
							"originated_contracts": [
								"KT1CsmjSyM6my2eZC6GQPaKXn1uNnZSc2xEa"
							],
							"consumed_gas": "10696",
							"storage_size": "32",
							"paid_storage_size_diff": "32"
						}
					},
					{
						"kind": "transaction",
						"source": "KT1Njyz94x2pNJGh5uMhKj24VB9JsGCdkySN",
						"nonce": 1,
						"amount": "0",
						"destination": "KT1Njyz94x2pNJGh5uMhKj24VB9JsGCdkySN",
						"parameters": {
							"entrypoint": "default",
							"value": [
								{
									"prim": "PUSH",
									"args": [
										{
											"prim": "address"
										},
										{
											"bytes": "012f17b6bedb4c49d71c81aeeca0f52b8af334c85400"
										}
									]
								},
								{
									"prim": "PAIR"
								},
								[
									{
										"prim": "CAR"
									},
									{
										"prim": "CONTRACT",
										"args": [
											{
												"prim": "nat"
											}
										]
									},
									{
										"prim": "IF_NONE",
										"args": [
											[
												{
													"prim": "PUSH",
													"args": [
														{
															"prim": "string"
														},
														{
															"string": "a"
														}
													]
												},
												{
													"prim": "FAILWITH"
												}
											],
											[

											]
										]
									},
									{
										"prim": "PUSH",
										"args": [
											{
												"prim": "address"
											},
											{
												"bytes": "0000e491d9f7ca15c847ee77605baaa9bf02c0b897be"
											}
										]
									},
									{
										"prim": "PAIR"
									},
									{
										"prim": "DIP",
										"args": [
											[
												{
													"prim": "PUSH",
													"args": [
														{
															"prim": "address"
														},
														{
															"bytes": "019b4fdf5e3e5eef40133ca7540bb1f5ba10a6e90200"
														}
													]
												},
												{
													"prim": "CONTRACT",
													"args": [
														{
															"prim": "pair",
															"args": [
																{
																	"prim": "address"
																},
																{
																	"prim": "contract",
																	"args": [
																		{
																			"prim": "nat"
																		}
																	]
																}
															]
														}
													],
													"annots": [
														"%getBalance"
													]
												},
												{
													"prim": "IF_NONE",
													"args": [
														[
															{
																"prim": "PUSH",
																"args": [
																	{
																		"prim": "string"
																	},
																	{
																		"string": "b"
																	}
																]
															},
															{
																"prim": "FAILWITH"
															}
														],
														[

														]
													]
												},
												{
													"prim": "PUSH",
													"args": [
														{
															"prim": "mutez"
														},
														{
															"int": "0"
														}
													]
												}
											]
										]
									},
									{
										"prim": "TRANSFER_TOKENS"
									},
									{
										"prim": "DIP",
										"args": [
											[
												{
													"prim": "NIL",
													"args": [
														{
															"prim": "operation"
														}
													]
												}
											]
										]
									},
									{
										"prim": "CONS"
									},
									{
										"prim": "DIP",
										"args": [
											[
												{
													"prim": "UNIT"
												}
											]
										]
									},
									{
										"prim": "PAIR"
									}
								]
							]
						},
						"result": {
							"status": "failed",
							"errors": [
								{
									"kind": "temporary",
									"id": "proto.006-PsCARTHA.michelson_v1.runtime_error",
									"contract_handle": "KT1Njyz94x2pNJGh5uMhKj24VB9JsGCdkySN",
									"contract_code": [
										{
											"prim": "parameter",
											"args": [
												{
													"prim": "lambda",
													"args": [
														{
															"prim": "unit"
														},
														{
															"prim": "pair",
															"args": [
																{
																	"prim": "list",
																	"args": [
																		{
																			"prim": "operation"
																		}
																	]
																},
																{
																	"prim": "unit"
																}
															]
														}
													]
												}
											]
										},
										{
											"prim": "storage",
											"args": [
												{
													"prim": "unit"
												}
											]
										},
										{
											"prim": "code",
											"args": [
												[
													{
														"prim": "CAR"
													},
													{
														"prim": "UNIT"
													},
													{
														"prim": "EXEC"
													}
												]
											]
										}
									]
								},
								{
									"kind": "temporary",
									"id": "proto.006-PsCARTHA.michelson_v1.script_rejected",
									"location": 35,
									"with": {
										"string": "b"
									}
								}
							]
						}
					}
				]
			}
		}
	]
}